{
   "type":"list_card",
   "paddings":{
      "top":"6x",
      "bottom":"4x",
      "left":"8x",
      "right":"8x"
   },
   "cells":[
      {
         "type":"text_cell_view",
         "content":{
            "text":"Долг по кредитной карте",
            "typeface":"headline3",
            "text_color":"default",
            "max_lines":0
         }
      },
      {
         "type":"left_right_cell_view",
         "left":{
            "type":"simple_left_view",
            "texts":{
               "title":{
                  "text":"Обязательный платеж",
                  "typeface":"body1",
                  "text_color":"default",
                  "max_lines":0
               }
            }
         },
         "right":{
            "type":"detail_right_view",
            "detail":{
               "text":"0 ₽",
               "typeface":"body1",
               "text_color":"default"
            },
            "margins":{
               "left":"6x"
            }
         },
         "paddings":{
            "top":"12x"
         }
      },
      {
         "type":"text_cell_view",
         "content":{
            "text":"Погашен",
            "typeface":"footnote1",
            "text_color":"brand"
         }
      },
      {
         "type":"left_right_cell_view",
         "left":{
            "type":"simple_left_view",
            "texts":{
               "title":{
                  "text":"Льготная задолженность",
                  "typeface":"body1",
                  "text_color":"default",
                  "max_lines":0
               }
            }
         },
         "right":{
            "type":"detail_right_view",
            "detail":{
               "text":"0 ₽",
               "typeface":"body1",
               "text_color":"default"
            },
            "margins":{
               "left":"6x"
            }
         },
         "paddings":{
            "top":"12x"
         }
      },
      {
         "type":"text_cell_view",
         "content":{
            "text":"Погашена",
            "typeface":"footnote1",
            "text_color":"brand"
         }
      },
      {
         "type":"left_right_cell_view",
         "left":{
            "type":"simple_left_view",
            "texts":{
               "title":{
                  "text":"Задолженность на сегодня",
                  "typeface":"body1",
                  "text_color":"default",
                  "max_lines":0
               }
            }
         },
         "right":{
            "type":"detail_right_view",
            "detail":{
               "text":"22 203,11 ₽",
               "typeface":"body1",
               "text_color":"default"
            },
            "margins":{
               "left":"6x"
            }
         },
         "paddings":{
            "top":"12x"
         }
      },
      {
         "type":"text_cell_view",
         "content":{
            "text":"Внесите эту сумму, чтобы закрыть всю задолженность перед банком",
            "typeface":"footnote1",
            "text_color":"secondary",
            "max_lines":0
         }
      },
      {
         "type":"button_cell_view",
         "content":{
            "text":"Внести платёж",
            "typeface":"button1",
            "style":"default",
            "type":"accept",
            "actions":[
               {
                  "type":"deep_link",
                  "deep_link":"sberbankonline://credit-card-replenish"
               }
            ],
            "margins":{
               "top":"4x",
               "bottom":"4x"
            }
         },
         "paddings":{
            "top":"8x"
         }
      }
   ]
}