{
   "type":"list_card",
   "paddings":{
      "bottom":"8x",
      "left":"8x",
      "right":"8x",
      "top":"8x"
   },
   "cells":[
      {
         "type":"left_right_cell_view",
         "left":{
            "type":"simple_left_view",
            "texts":{
               "title":{
                  "text":"Покупка подписки",
                  "typeface":"headline3",
                  "text_color":"default",
                  "max_lines":1
               }
            },
            "icon_vertical_gravity":"center"
         }
      },
      {
         "type":"left_right_cell_view",
         "paddings":{
            "top":"8x",
            "bottom":"6x"
         },
         "left":{
            "type":"simple_left_view",
            "icon":{
               "address":{
                  "type":"local",
                  "identificator":"percent"
               },
               "size":{
                  "width":"medium",
                  "height":"medium"
               },
               "margins":{
                  "right":"6x"
               },
               "tint_color":"solid_white"
            },
            "texts":{
               "title":{
                  "text":"Тип подписки",
                  "typeface":"footnote1",
                  "text_color":"secondary",
                  "max_lines":1
               },
               "subtitle":{
                  "text":"Переводы на 1 месяц",
                  "typeface":"body1",
                  "text_color":"default",
                  "margins":{
                     "top":"1x"
                  },
                  "max_lines":1
               }
            },
            "icon_vertical_gravity":"center"
         },
         "divider":{
            "style":"default",
            "size":"d5"
         }
      },
      {
         "type":"left_right_cell_view",
         "paddings":{
            "top":"6x",
            "bottom":"6x"
         },
         "left":{
            "type":"simple_left_view",
            "icon":{
               "address":{
                  "type":"local",
                  "identificator":"card_visa"
               },
               "size":{
                  "width":"medium",
                  "height":"medium"
               },
               "margins":{
                  "right":"6x"
               }
            },
            "texts":{
               "title":{
                  "text":"Счет списания",
                  "typeface":"footnote1",
                  "text_color":"secondary",
                  "max_lines":0
               },
               "subtitle":{
                  "text":"MasterCard",
                  "typeface":"body1",
                  "text_color":"default",
                  "margins":{
                     "bottom":"1x",
                     "top":"1x"
                  },
                  "max_lines":1
               },
               "caption":{
                  "text":"•• 1234",
                  "typeface":"footnote1",
                  "text_color":"secondary",
                  "max_lines":1
               }
            },
            "icon_vertical_gravity":"center"
         },
         "right":{
            "type":"detail_right_view",
            "detail":{
               "text":"5 600 Р",
               "typeface":"body1",
               "text_color":"brand",
               "max_lines":1
            },
            "vertical_gravity":"center",
            "detail_position":"top"
         },
         "divider":{
            "style":"default",
            "size":"d5"
         },
         "actions":[
            {
               "type":"text",
               "text":"Изменить счёт списания"
            }
         ]
      },
      {
         "type":"left_right_cell_view",
         "paddings":{
            "top":"6x",
            "bottom":"6x"
         },
         "left":{
            "type":"simple_left_view",
            "icon":{
               "address":{
                  "type":"local",
                  "identificator":"color_total"
               },
               "size":{
                  "width":"medium",
                  "height":"medium"
               },
               "margins":{
                  "right":"6x"
               }
            },
            "texts":{
               "title":{
                  "text":"Сумма",
                  "typeface":"footnote1",
                  "text_color":"secondary",
                  "max_lines":1
               },
               "subtitle":{
                  "text":"199 Р",
                  "typeface":"body1",
                  "text_color":"default",
                  "margins":{
                     "bottom":"1x",
                     "top":"1x"
                  },
                  "max_lines":1
               }
            },
            "icon_vertical_gravity":"center"
         }
      },
      {
         "type":"button_cell_view",
         "content":{
            "type":"accept",
            "text":"Перевести 199 Р",
            "actions":[
               {
                  "type":"text",
                  "text":"Подтверждаю"
               }
            ],
            "typeface":"button1",
            "style":"default",
            "margins":{
               "bottom":"5x",
               "top":"5x"
            }
         },
         "paddings":{
            "top":"2x"
         }
      }
   ]
}