{
  "type":"list_card",
  "paddings":{
    "top":"4x",
    "bottom":"4x"
  },
  "cells":[
    {
      "type":"text_cell_view",
      "content":{
        "text":"Узнать лимит по карте",
        "typeface":"title1",
        "text_color":"default"
      },
      "paddings":{
        "left":"8x",
        "top":"6x",
        "right":"8x",
        "bottom":"6x"
      }
    },
    {
      "type":"left_right_cell_view",
      "divider":{
        "style":"default",
        "size":"d5"
      },
      "paddings":{
        "left":"8x",
        "top":"8x",
        "right":"8x",
        "bottom":"8x"
      },
      "left":{
        "type":"simple_left_view",
        "icon":{
          "address":{
            "type":"local",
            "identificator":"card_mir_gold"
          },
          "size":{
            "width":"medium",
            "height":"medium"
          },
          "margins":{
            "right":"6x"
          }
        },
        "icon_vertical_gravity":"center",
        "texts":{
          "title":{
            "text":"MIR Gold",
            "typeface":"body1",
            "text_color":"default"
          },
          "subtitle":{
            "text":"•• 0196 • доп",
            "typeface":"footnote1",
            "text_color":"secondary",
            "margins":{
              "top":"1x"
            }
          }
        }
      },
      "right":{
        "type":"detail_right_view",
        "detail":{
          "text":"89 500 ₽",
          "typeface":"body1",
          "text_color":"brand"
        },
        "margins":{
          "left":"2x"
        },
        "vertical_gravity":"top"
      },
      "actions":[
        {
          "type":"text",
          "text":"MIR Gold 0196"
        }
      ]
    },
    {
      "type":"left_right_cell_view",
      "divider":{
        "style":"default",
        "size":"d5"
      },
      "paddings":{
        "left":"8x",
        "top":"8x",
        "right":"8x",
        "bottom":"8x"
      },
      "left":{
        "type":"simple_left_view",
        "icon":{
          "address":{
            "type":"local",
            "identificator":"card_visa"
          },
          "size":{
            "width":"medium",
            "height":"medium"
          },
          "margins":{
            "right":"6x"
          }
        },
        "icon_vertical_gravity":"center",
        "texts":{
          "title":{
            "text":"Visa Platinum",
            "typeface":"body1",
            "text_color":"default"
          },
          "subtitle":{
            "text":"•• 2033 • доп",
            "typeface":"footnote1",
            "text_color":"secondary",
            "margins":{
              "top":"1x"
            }
          }
        }
      },
      "right":{
        "type":"detail_right_view",
        "detail":{
          "text":"77 800 ₽",
          "typeface":"body1",
          "text_color":"brand"
        },
        "margins":{
          "left":"2x"
        },
        "vertical_gravity":"top"
      },
      "actions":[
        {
          "type":"text",
          "text":"Visa Platinum 2033"
        }
      ]
    },
    {
      "type":"left_right_cell_view",
      "divider":{
        "style":"default",
        "size":"d5"
      },
      "paddings":{
        "left":"8x",
        "top":"8x",
        "right":"8x",
        "bottom":"8x"
      },
      "left":{
        "type":"simple_left_view",
        "icon":{
          "address":{
            "type":"local",
            "identificator":"card_visa_gold"
          },
          "size":{
            "width":"medium",
            "height":"medium"
          },
          "margins":{
            "right":"6x"
          }
        },
        "icon_vertical_gravity":"center",
        "texts":{
          "title":{
            "text":"Visa Gold",
            "typeface":"body1",
            "text_color":"default"
          },
          "subtitle":{
            "text":"•• 0359 • доп",
            "typeface":"footnote1",
            "text_color":"secondary",
            "margins":{
              "top":"1x"
            }
          }
        }
      },
      "right":{
        "type":"detail_right_view",
        "detail":{
          "text":"200 010 ₽",
          "typeface":"body1",
          "text_color":"brand"
        },
        "margins":{
          "left":"2x"
        },
        "vertical_gravity":"top"
      },
      "actions":[
        {
          "type":"text",
          "text":"Visa Gold 0359"
        }
      ]
    },
    {
      "type":"left_right_cell_view",
      "divider":{
        "style":"default",
        "size":"d5"
      },
      "paddings":{
        "left":"8x",
        "top":"8x",
        "right":"8x",
        "bottom":"8x"
      },
      "left":{
        "type":"simple_left_view",
        "icon":{
          "address":{
            "type":"local",
            "identificator":"card_visa_digital"
          },
          "size":{
            "width":"medium",
            "height":"medium"
          },
          "margins":{
            "right":"6x"
          }
        },
        "icon_vertical_gravity":"center",
        "texts":{
          "title":{
            "text":"Visa Digital",
            "typeface":"body1",
            "text_color":"default"
          },
          "subtitle":{
            "text":"•• 0941 • кред",
            "typeface":"footnote1",
            "text_color":"secondary",
            "margins":{
              "top":"1x"
            }
          }
        }
      },
      "right":{
        "type":"detail_right_view",
        "detail":{
          "text":"0 ₽",
          "typeface":"body1",
          "text_color":"secondary"
        },
        "margins":{
          "left":"2x"
        },
        "vertical_gravity":"top"
      },
      "actions":[
        {
          "type":"text",
          "text":"Visa Digital 0941"
        }
      ]
    },
    {
      "type":"left_right_cell_view",
      "divider":{
        "style":"default",
        "size":"d5"
      },
      "paddings":{
        "left":"8x",
        "top":"8x",
        "right":"8x",
        "bottom":"8x"
      },
      "left":{
        "type":"simple_left_view",
        "icon":{
          "address":{
            "type":"local",
            "identificator":"card_mir"
          },
          "size":{
            "width":"medium",
            "height":"medium"
          },
          "margins":{
            "right":"6x"
          }
        },
        "icon_vertical_gravity":"center",
        "texts":{
          "title":{
            "text":"MIR",
            "typeface":"body1",
            "text_color":"default"
          },
          "subtitle":{
            "text":"•• 6774",
            "typeface":"footnote1",
            "text_color":"secondary",
            "margins":{
              "top":"1x"
            }
          }
        }
      },
      "right":{
        "type":"detail_right_view",
        "detail":{
          "text":"-450 ₽",
          "typeface":"body1",
          "text_color":"secondary"
        },
        "margins":{
          "left":"2x"
        },
        "vertical_gravity":"top"
      },
      "actions":[
        {
          "type":"text",
          "text":"MIR 6774"
        }
      ]
    },
    {
      "type":"left_right_cell_view",
      "divider":{
        "style":"default",
        "size":"d5"
      },
      "paddings":{
        "left":"8x",
        "top":"8x",
        "right":"8x",
        "bottom":"8x"
      },
      "left":{
        "type":"simple_left_view",
        "icon":{
          "address":{
            "type":"local",
            "identificator":"card_mc"
          },
          "size":{
            "width":"medium",
            "height":"medium"
          },
          "margins":{
            "right":"6x"
          }
        },
        "icon_vertical_gravity":"center",
        "texts":{
          "title":{
            "text":"MasterCard Mass",
            "typeface":"body1",
            "text_color":"default"
          },
          "subtitle":{
            "text":"•• 2690",
            "typeface":"footnote1",
            "text_color":"secondary",
            "margins":{
              "top":"1x"
            }
          }
        }
      },
      "right":{
        "type":"detail_right_view",
        "detail":{
          "text":"-1 200 ₽",
          "typeface":"body1",
          "text_color":"secondary"
        },
        "margins":{
          "left":"2x"
        },
        "vertical_gravity":"top"
      },
      "actions":[
        {
          "type":"text",
          "text":"MasterCard Mass 2690"
        }
      ]
    },
    {
      "type":"left_right_cell_view",
      "divider":{
        "style":"default",
        "size":"d5"
      },
      "paddings":{
        "left":"8x",
        "top":"8x",
        "right":"8x",
        "bottom":"8x"
      },
      "left":{
        "type":"simple_left_view",
        "icon":{
          "address":{
            "type":"local",
            "identificator":"card_visa"
          },
          "size":{
            "width":"medium",
            "height":"medium"
          },
          "margins":{
            "right":"6x"
          }
        },
        "icon_vertical_gravity":"center",
        "texts":{
          "title":{
            "text":"Visa Classic",
            "typeface":"body1",
            "text_color":"default"
          },
          "subtitle":{
            "text":"•• 6750",
            "typeface":"footnote1",
            "text_color":"secondary",
            "margins":{
              "top":"1x"
            }
          }
        }
      },
      "right":{
        "type":"detail_right_view",
        "detail":{
          "text":"-450 ₽",
          "typeface":"body1",
          "text_color":"secondary"
        },
        "margins":{
          "left":"2x"
        },
        "vertical_gravity":"top"
      },
      "actions":[
        {
          "type":"text",
          "text":"Visa Classic 6750"
        }
      ]
    },
    {
      "type":"left_right_cell_view",
      "divider":{
        "style":"default",
        "size":"d5"
      },
      "paddings":{
        "left":"8x",
        "top":"8x",
        "right":"8x",
        "bottom":"8x"
      },
      "left":{
        "type":"simple_left_view",
        "icon":{
          "address":{
            "type":"local",
            "identificator":"card_mc_gold"
          },
          "size":{
            "width":"medium",
            "height":"medium"
          },
          "margins":{
            "right":"6x"
          }
        },
        "icon_vertical_gravity":"center",
        "texts":{
          "title":{
            "text":"MasterCard Gold",
            "typeface":"body1",
            "text_color":"default"
          },
          "subtitle":{
            "text":"•• 6156",
            "typeface":"footnote1",
            "text_color":"secondary",
            "margins":{
              "top":"1x"
            }
          }
        }
      },
      "right":{
        "type":"detail_right_view",
        "detail":{
          "text":"-3 000 ₽",
          "typeface":"body1",
          "text_color":"secondary"
        },
        "margins":{
          "left":"2x"
        },
        "vertical_gravity":"top"
      },
      "actions":[
        {
          "type":"text",
          "text":"MasterCard Gold 6156"
        }
      ]
    },
    {
      "type":"left_right_cell_view",
      "divider":{
        "style":"default",
        "size":"d5"
      },
      "paddings":{
        "left":"8x",
        "top":"8x",
        "right":"8x",
        "bottom":"8x"
      },
      "left":{
        "type":"simple_left_view",
        "icon":{
          "address":{
            "type":"local",
            "identificator":"card_visa_gold"
          },
          "size":{
            "width":"medium",
            "height":"medium"
          },
          "margins":{
            "right":"6x"
          }
        },
        "icon_vertical_gravity":"center",
        "texts":{
          "title":{
            "text":"Visa Gold",
            "typeface":"body1",
            "text_color":"default"
          },
          "subtitle":{
            "text":"•• 4844",
            "typeface":"footnote1",
            "text_color":"secondary",
            "margins":{
              "top":"1x"
            }
          }
        }
      },
      "right":{
        "type":"detail_right_view",
        "detail":{
          "text":"56,13 ₽",
          "typeface":"body1",
          "text_color":"brand"
        },
        "margins":{
          "left":"2x"
        },
        "vertical_gravity":"top"
      },
      "actions":[
        {
          "type":"text",
          "text":"Visa Gold 4844"
        }
      ]
    },
    {
      "type":"left_right_cell_view",
      "divider":{
        "style":"default",
        "size":"d5"
      },
      "paddings":{
        "left":"8x",
        "top":"8x",
        "right":"8x",
        "bottom":"8x"
      },
      "left":{
        "type":"simple_left_view",
        "icon":{
          "address":{
            "type":"local",
            "identificator":"card_visa"
          },
          "size":{
            "width":"medium",
            "height":"medium"
          },
          "margins":{
            "right":"6x"
          }
        },
        "icon_vertical_gravity":"center",
        "texts":{
          "title":{
            "text":"Visa Classic",
            "typeface":"body1",
            "text_color":"default"
          },
          "subtitle":{
            "text":"•• 0918",
            "typeface":"footnote1",
            "text_color":"secondary",
            "margins":{
              "top":"1x"
            }
          }
        }
      },
      "right":{
        "type":"detail_right_view",
        "detail":{
          "text":"40 000 ₽",
          "typeface":"body1",
          "text_color":"brand"
        },
        "margins":{
          "left":"2x"
        },
        "vertical_gravity":"top"
      },
      "actions":[
        {
          "type":"text",
          "text":"Visa Classic 0918"
        }
      ]
    },
    {
      "type":"left_right_cell_view",
      "divider":{
        "style":"default",
        "size":"d5"
      },
      "paddings":{
        "left":"8x",
        "top":"8x",
        "right":"8x",
        "bottom":"8x"
      },
      "left":{
        "type":"simple_left_view",
        "icon":{
          "address":{
            "type":"local",
            "identificator":"card_visa"
          },
          "size":{
            "width":"medium",
            "height":"medium"
          },
          "margins":{
            "right":"6x"
          }
        },
        "icon_vertical_gravity":"center",
        "texts":{
          "title":{
            "text":"Visa Classic",
            "typeface":"body1",
            "text_color":"default"
          },
          "subtitle":{
            "text":"•• 9444",
            "typeface":"footnote1",
            "text_color":"secondary",
            "margins":{
              "top":"1x"
            }
          }
        }
      },
      "right":{
        "type":"detail_right_view",
        "detail":{
          "text":"5 882 800 ₽",
          "typeface":"body1",
          "text_color":"brand"
        },
        "margins":{
          "left":"2x"
        },
        "vertical_gravity":"top"
      },
      "actions":[
        {
          "type":"text",
          "text":"Visa Classic 9444"
        }
      ]
    },
    {
      "type":"left_right_cell_view",
      "divider":{
        "style":"default",
        "size":"d5"
      },
      "paddings":{
        "left":"8x",
        "top":"8x",
        "right":"8x",
        "bottom":"8x"
      },
      "left":{
        "type":"simple_left_view",
        "icon":{
          "address":{
            "type":"local",
            "identificator":"card_visa"
          },
          "size":{
            "width":"medium",
            "height":"medium"
          },
          "margins":{
            "right":"6x"
          }
        },
        "icon_vertical_gravity":"center",
        "texts":{
          "title":{
            "text":"Visa Classic",
            "typeface":"body1",
            "text_color":"default"
          },
          "subtitle":{
            "text":"•• 0173 • доп",
            "typeface":"footnote1",
            "text_color":"secondary",
            "margins":{
              "top":"1x"
            }
          }
        }
      },
      "right":{
        "type":"detail_right_view",
        "detail":{
          "text":"99 895,01 $",
          "typeface":"body1",
          "text_color":"brand"
        },
        "margins":{
          "left":"2x"
        },
        "vertical_gravity":"top"
      },
      "actions":[
        {
          "type":"text",
          "text":"Visa Classic 0173"
        }
      ]
    },
    {
      "type":"left_right_cell_view",
      "divider":{
        "style":"default",
        "size":"d5"
      },
      "paddings":{
        "left":"8x",
        "top":"8x",
        "right":"8x",
        "bottom":"8x"
      },
      "left":{
        "type":"simple_left_view",
        "icon":{
          "address":{
            "type":"local",
            "identificator":"card_mc"
          },
          "size":{
            "width":"medium",
            "height":"medium"
          },
          "margins":{
            "right":"6x"
          }
        },
        "icon_vertical_gravity":"center",
        "texts":{
          "title":{
            "text":"MasterCard Platinum",
            "typeface":"body1",
            "text_color":"default"
          },
          "subtitle":{
            "text":"•• 1691 • доп",
            "typeface":"footnote1",
            "text_color":"secondary",
            "margins":{
              "top":"1x"
            }
          }
        }
      },
      "right":{
        "type":"detail_right_view",
        "detail":{
          "text":"775 $",
          "typeface":"body1",
          "text_color":"brand"
        },
        "margins":{
          "left":"2x"
        },
        "vertical_gravity":"top"
      },
      "actions":[
        {
          "type":"text",
          "text":"MasterCard Platinum 1691"
        }
      ]
    },
    {
      "type":"left_right_cell_view",
      "divider":{
        "style":"default",
        "size":"d5"
      },
      "paddings":{
        "left":"8x",
        "top":"8x",
        "right":"8x",
        "bottom":"8x"
      },
      "left":{
        "type":"simple_left_view",
        "icon":{
          "address":{
            "type":"local",
            "identificator":"card_mc"
          },
          "size":{
            "width":"medium",
            "height":"medium"
          },
          "margins":{
            "right":"6x"
          }
        },
        "icon_vertical_gravity":"center",
        "texts":{
          "title":{
            "text":"MasterCard Mass",
            "typeface":"body1",
            "text_color":"default"
          },
          "subtitle":{
            "text":"•• 1596 • доп",
            "typeface":"footnote1",
            "text_color":"secondary",
            "margins":{
              "top":"1x"
            }
          }
        }
      },
      "right":{
        "type":"detail_right_view",
        "detail":{
          "text":"99 910 $",
          "typeface":"body1",
          "text_color":"brand"
        },
        "margins":{
          "left":"2x"
        },
        "vertical_gravity":"top"
      },
      "actions":[
        {
          "type":"text",
          "text":"MasterCard Mass 1596"
        }
      ]
    },
    {
      "type":"left_right_cell_view",
      "divider":{
        "style":"default",
        "size":"d5"
      },
      "paddings":{
        "left":"8x",
        "top":"8x",
        "right":"8x",
        "bottom":"8x"
      },
      "left":{
        "type":"simple_left_view",
        "icon":{
          "address":{
            "type":"local",
            "identificator":"card_mc_gold"
          },
          "size":{
            "width":"medium",
            "height":"medium"
          },
          "margins":{
            "right":"6x"
          }
        },
        "icon_vertical_gravity":"center",
        "texts":{
          "title":{
            "text":"MasterCard Gold",
            "typeface":"body1",
            "text_color":"default"
          },
          "subtitle":{
            "text":"•• 8940 • доп",
            "typeface":"footnote1",
            "text_color":"secondary",
            "margins":{
              "top":"1x"
            }
          }
        }
      },
      "right":{
        "type":"detail_right_view",
        "detail":{
          "text":"83 500 ₽",
          "typeface":"body1",
          "text_color":"brand"
        },
        "margins":{
          "left":"2x"
        },
        "vertical_gravity":"top"
      },
      "actions":[
        {
          "type":"text",
          "text":"MasterCard Gold 8940"
        }
      ]
    },
    {
      "type":"left_right_cell_view",
      "divider":{
        "style":"default",
        "size":"d5"
      },
      "paddings":{
        "left":"8x",
        "top":"8x",
        "right":"8x",
        "bottom":"8x"
      },
      "left":{
        "type":"simple_left_view",
        "icon":{
          "address":{
            "type":"local",
            "identificator":"card_visa_gold"
          },
          "size":{
            "width":"medium",
            "height":"medium"
          },
          "margins":{
            "right":"6x"
          }
        },
        "icon_vertical_gravity":"center",
        "texts":{
          "title":{
            "text":"Visa Gold",
            "typeface":"body1",
            "text_color":"default"
          },
          "subtitle":{
            "text":"•• 1867 • доп",
            "typeface":"footnote1",
            "text_color":"secondary",
            "margins":{
              "top":"1x"
            }
          }
        }
      },
      "right":{
        "type":"detail_right_view",
        "detail":{
          "text":"79 057 ₽",
          "typeface":"body1",
          "text_color":"brand"
        },
        "margins":{
          "left":"2x"
        },
        "vertical_gravity":"top"
      },
      "actions":[
        {
          "type":"text",
          "text":"Visa Gold 1867"
        }
      ]
    },
    {
      "type":"left_right_cell_view",
      "divider":{
        "style":"default",
        "size":"d5"
      },
      "paddings":{
        "left":"8x",
        "top":"8x",
        "right":"8x",
        "bottom":"8x"
      },
      "left":{
        "type":"simple_left_view",
        "icon":{
          "address":{
            "type":"local",
            "identificator":"card_mc"
          },
          "size":{
            "width":"medium",
            "height":"medium"
          },
          "margins":{
            "right":"6x"
          }
        },
        "icon_vertical_gravity":"center",
        "texts":{
          "title":{
            "text":"MasterCard Mass",
            "typeface":"body1",
            "text_color":"default"
          },
          "subtitle":{
            "text":"•• 2854 • доп",
            "typeface":"footnote1",
            "text_color":"secondary",
            "margins":{
              "top":"1x"
            }
          }
        }
      },
      "right":{
        "type":"detail_right_view",
        "detail":{
          "text":"97 300 ₽",
          "typeface":"body1",
          "text_color":"brand"
        },
        "margins":{
          "left":"2x"
        },
        "vertical_gravity":"top"
      },
      "actions":[
        {
          "type":"text",
          "text":"MasterCard Mass 2854"
        }
      ]
    },
    {
      "type":"left_right_cell_view",
      "divider":{
        "style":"default",
        "size":"d5"
      },
      "paddings":{
        "left":"8x",
        "top":"8x",
        "right":"8x",
        "bottom":"8x"
      },
      "left":{
        "type":"simple_left_view",
        "icon":{
          "address":{
            "type":"local",
            "identificator":"card_mc"
          },
          "size":{
            "width":"medium",
            "height":"medium"
          },
          "margins":{
            "right":"6x"
          }
        },
        "icon_vertical_gravity":"center",
        "texts":{
          "title":{
            "text":"MasterCard Mass",
            "typeface":"body1",
            "text_color":"default"
          },
          "subtitle":{
            "text":"•• 4450 • доп",
            "typeface":"footnote1",
            "text_color":"secondary",
            "margins":{
              "top":"1x"
            }
          }
        }
      },
      "right":{
        "type":"detail_right_view",
        "detail":{
          "text":"210 €",
          "typeface":"body1",
          "text_color":"brand"
        },
        "margins":{
          "left":"2x"
        },
        "vertical_gravity":"top"
      },
      "actions":[
        {
          "type":"text",
          "text":"MasterCard Mass 4450"
        }
      ]
    },
    {
      "type":"left_right_cell_view",
      "divider":{
        "style":"default",
        "size":"d5"
      },
      "paddings":{
        "left":"8x",
        "top":"8x",
        "right":"8x",
        "bottom":"8x"
      },
      "left":{
        "type":"simple_left_view",
        "icon":{
          "address":{
            "type":"local",
            "identificator":"card_mc"
          },
          "size":{
            "width":"medium",
            "height":"medium"
          },
          "margins":{
            "right":"6x"
          }
        },
        "icon_vertical_gravity":"center",
        "texts":{
          "title":{
            "text":"MasterCard Mass",
            "typeface":"body1",
            "text_color":"default"
          },
          "subtitle":{
            "text":"•• 4734",
            "typeface":"footnote1",
            "text_color":"secondary",
            "margins":{
              "top":"1x"
            }
          }
        }
      },
      "right":{
        "type":"detail_right_view",
        "detail":{
          "text":"210 €",
          "typeface":"body1",
          "text_color":"brand"
        },
        "margins":{
          "left":"2x"
        },
        "vertical_gravity":"top"
      },
      "actions":[
        {
          "type":"text",
          "text":"MasterCard Mass 4734"
        }
      ]
    },
    {
      "type":"left_right_cell_view",
      "divider":{
        "style":"default",
        "size":"d5"
      },
      "paddings":{
        "left":"8x",
        "top":"8x",
        "right":"8x",
        "bottom":"8x"
      },
      "left":{
        "type":"simple_left_view",
        "icon":{
          "address":{
            "type":"local",
            "identificator":"card_mc"
          },
          "size":{
            "width":"medium",
            "height":"medium"
          },
          "margins":{
            "right":"6x"
          }
        },
        "icon_vertical_gravity":"center",
        "texts":{
          "title":{
            "text":"MasterCard Mass",
            "typeface":"body1",
            "text_color":"default"
          },
          "subtitle":{
            "text":"•• 5065 • доп",
            "typeface":"footnote1",
            "text_color":"secondary",
            "margins":{
              "top":"1x"
            }
          }
        }
      },
      "right":{
        "type":"detail_right_view",
        "detail":{
          "text":"235 $",
          "typeface":"body1",
          "text_color":"brand"
        },
        "margins":{
          "left":"2x"
        },
        "vertical_gravity":"top"
      },
      "actions":[
        {
          "type":"text",
          "text":"MasterCard Mass 5065"
        }
      ]
    },
    {
      "type":"left_right_cell_view",
      "divider":{
        "style":"default",
        "size":"d5"
      },
      "paddings":{
        "left":"8x",
        "top":"8x",
        "right":"8x",
        "bottom":"8x"
      },
      "left":{
        "type":"simple_left_view",
        "icon":{
          "address":{
            "type":"local",
            "identificator":"card_visa"
          },
          "size":{
            "width":"medium",
            "height":"medium"
          },
          "margins":{
            "right":"6x"
          }
        },
        "icon_vertical_gravity":"center",
        "texts":{
          "title":{
            "text":"Visa Classic",
            "typeface":"body1",
            "text_color":"default"
          },
          "subtitle":{
            "text":"•• 1413 • доп",
            "typeface":"footnote1",
            "text_color":"secondary",
            "margins":{
              "top":"1x"
            }
          }
        }
      },
      "right":{
        "type":"detail_right_view",
        "detail":{
          "text":"14 000 ₽",
          "typeface":"body1",
          "text_color":"brand"
        },
        "margins":{
          "left":"2x"
        },
        "vertical_gravity":"top"
      },
      "actions":[
        {
          "type":"text",
          "text":"Visa Classic 1413"
        }
      ]
    },
    {
      "type":"left_right_cell_view",
      "divider":{
        "style":"default",
        "size":"d5"
      },
      "paddings":{
        "left":"8x",
        "top":"8x",
        "right":"8x",
        "bottom":"8x"
      },
      "left":{
        "type":"simple_left_view",
        "icon":{
          "address":{
            "type":"local",
            "identificator":"card_visa_digital"
          },
          "size":{
            "width":"medium",
            "height":"medium"
          },
          "margins":{
            "right":"6x"
          }
        },
        "icon_vertical_gravity":"center",
        "texts":{
          "title":{
            "text":"Visa Digital",
            "typeface":"body1",
            "text_color":"default"
          },
          "subtitle":{
            "text":"•• 1958",
            "typeface":"footnote1",
            "text_color":"secondary",
            "margins":{
              "top":"1x"
            }
          }
        }
      },
      "right":{
        "type":"detail_right_view",
        "detail":{
          "text":"30 000 ₽",
          "typeface":"body1",
          "text_color":"brand"
        },
        "margins":{
          "left":"2x"
        },
        "vertical_gravity":"top"
      },
      "actions":[
        {
          "type":"text",
          "text":"Visa Digital 1958"
        }
      ]
    },
    {
      "type":"left_right_cell_view",
      "divider":{
        "style":"default",
        "size":"d5"
      },
      "paddings":{
        "left":"8x",
        "top":"8x",
        "right":"8x",
        "bottom":"8x"
      },
      "left":{
        "type":"simple_left_view",
        "icon":{
          "address":{
            "type":"local",
            "identificator":"card_mc"
          },
          "size":{
            "width":"medium",
            "height":"medium"
          },
          "margins":{
            "right":"6x"
          }
        },
        "icon_vertical_gravity":"center",
        "texts":{
          "title":{
            "text":"Maestro",
            "typeface":"body1",
            "text_color":"default"
          },
          "subtitle":{
            "text":"•• 6 60",
            "typeface":"footnote1",
            "text_color":"secondary",
            "margins":{
              "top":"1x"
            }
          }
        }
      },
      "right":{
        "type":"detail_right_view",
        "detail":{
          "text":"14 233,28 ₽",
          "typeface":"body1",
          "text_color":"brand"
        },
        "margins":{
          "left":"2x"
        },
        "vertical_gravity":"top"
      },
      "actions":[
        {
          "type":"text",
          "text":"Maestro 6 60"
        }
      ]
    },
    {
      "type":"left_right_cell_view",
      "divider":{
        "style":"default",
        "size":"d5"
      },
      "paddings":{
        "left":"8x",
        "top":"8x",
        "right":"8x",
        "bottom":"8x"
      },
      "left":{
        "type":"simple_left_view",
        "icon":{
          "address":{
            "type":"local",
            "identificator":"card_mc"
          },
          "size":{
            "width":"medium",
            "height":"medium"
          },
          "margins":{
            "right":"6x"
          }
        },
        "icon_vertical_gravity":"center",
        "texts":{
          "title":{
            "text":"MasterCard Standard Бесконтактная",
            "typeface":"body1",
            "text_color":"default"
          },
          "subtitle":{
            "text":"•• 2730",
            "typeface":"footnote1",
            "text_color":"secondary",
            "margins":{
              "top":"1x"
            }
          }
        }
      },
      "right":{
        "type":"detail_right_view",
        "detail":{
          "text":"-1 044 ₽",
          "typeface":"body1",
          "text_color":"secondary"
        },
        "margins":{
          "left":"2x"
        },
        "vertical_gravity":"top"
      },
      "actions":[
        {
          "type":"text",
          "text":"MasterCard Standard Бесконтактная 2730"
        }
      ]
    },
    {
      "type":"left_right_cell_view",
      "divider":{
        "style":"default",
        "size":"d5"
      },
      "paddings":{
        "left":"8x",
        "top":"8x",
        "right":"8x",
        "bottom":"8x"
      },
      "left":{
        "type":"simple_left_view",
        "icon":{
          "address":{
            "type":"local",
            "identificator":"card_mc"
          },
          "size":{
            "width":"medium",
            "height":"medium"
          },
          "margins":{
            "right":"6x"
          }
        },
        "icon_vertical_gravity":"center",
        "texts":{
          "title":{
            "text":"MasterCard Mass",
            "typeface":"body1",
            "text_color":"default"
          },
          "subtitle":{
            "text":"•• 7409",
            "typeface":"footnote1",
            "text_color":"secondary",
            "margins":{
              "top":"1x"
            }
          }
        }
      },
      "right":{
        "type":"detail_right_view",
        "detail":{
          "text":"-450 ₽",
          "typeface":"body1",
          "text_color":"secondary"
        },
        "margins":{
          "left":"2x"
        },
        "vertical_gravity":"top"
      },
      "actions":[
        {
          "type":"text",
          "text":"MasterCard Mass 7409"
        }
      ]
    },
    {
      "type":"left_right_cell_view",
      "paddings":{
        "left":"8x",
        "top":"8x",
        "right":"8x",
        "bottom":"8x"
      },
      "left":{
        "type":"simple_left_view",
        "icon":{
          "address":{
            "type":"local",
            "identificator":"card_visa"
          },
          "size":{
            "width":"medium",
            "height":"medium"
          },
          "margins":{
            "right":"6x"
          }
        },
        "icon_vertical_gravity":"center",
        "texts":{
          "title":{
            "text":"Visa Classic",
            "typeface":"body1",
            "text_color":"default"
          },
          "subtitle":{
            "text":"•• 9610",
            "typeface":"footnote1",
            "text_color":"secondary",
            "margins":{
              "top":"1x"
            }
          }
        }
      },
      "right":{
        "type":"detail_right_view",
        "detail":{
          "text":"14 825 ₽",
          "typeface":"body1",
          "text_color":"brand"
        },
        "margins":{
          "left":"2x"
        },
        "vertical_gravity":"top"
      },
      "actions":[
        {
          "type":"text",
          "text":"Visa Classic 9610"
        }
      ]
    }
  ]
}