{
  "type":"list_card",
  "paddings":{
    "top":"6x",
    "bottom":"4x",
    "left":"8x",
    "right":"8x"
  },
  "cells":[
    {
      "type":"text_cell_view",
      "content":{
        "text":"Последние операции",
        "typeface":"headline3",
        "text_color":"default",
        "max_lines":0
      }
    },
    {
      "type":"left_right_cell_view",
      "paddings":{
        "top":"12x"
      },
      "left":{
        "type":"simple_left_view",
        "texts":{
          "title":{
            "text":"Сберегательный счет 40817810238250232159",
            "typeface":"body1",
            "text_color":"default",
            "max_lines":2
          }
        }
      },
      "right":{
        "type":"detail_right_view",
        "detail":{
          "text":"+ 0,02 ₽",
          "typeface":"body1",
          "text_color":"brand"
        },
        "margins":{
          "left":"6x"
        }
      }
    },
    {
      "type":"text_cell_view",
      "content":{
        "text":"Капитализация по вкладу/счету",
        "typeface":"footnote1",
        "text_color":"secondary",
        "max_lines":1,
        "margins":{
          "top":"1x"
        }
      }
    },
    {
      "type":"left_right_cell_view",
      "paddings":{
        "top":"12x"
      },
      "left":{
        "type":"simple_left_view",
        "texts":{
          "title":{
            "text":"Сохраняй ОнЛ@йн 1м - 2м (руб.) 42303810038251103944",
            "typeface":"body1",
            "text_color":"default",
            "max_lines":2
          }
        }
      },
      "right":{
        "type":"detail_right_view",
        "detail":{
          "text":"+ 1,41 ₽",
          "typeface":"body1",
          "text_color":"brand"
        },
        "margins":{
          "left":"6x"
        }
      }
    },
    {
      "type":"text_cell_view",
      "content":{
        "text":"Пролонгация вклада/счета",
        "typeface":"footnote1",
        "text_color":"secondary",
        "max_lines":1,
        "margins":{
          "top":"1x"
        }
      }
    },
    {
      "type":"left_right_cell_view",
      "paddings":{
        "top":"12x"
      },
      "left":{
        "type":"simple_left_view",
        "texts":{
          "title":{
            "text":"золото ",
            "typeface":"body1",
            "text_color":"default",
            "max_lines":2
          }
        }
      },
      "right":{
        "type":"detail_right_view",
        "detail":{
          "text":"+ 0,10 г",
          "typeface":"body1",
          "text_color":"brand"
        },
        "margins":{
          "left":"6x"
        }
      }
    },
    {
      "type":"text_cell_view",
      "content":{
        "text":"Открытие ОМС",
        "typeface":"footnote1",
        "text_color":"secondary",
        "max_lines":1,
        "margins":{
          "top":"1x"
        }
      }
    },
    {
      "type":"left_right_cell_view",
      "paddings":{
        "top":"12x"
      },
      "left":{
        "type":"simple_left_view",
        "texts":{
          "title":{
            "text":"серебро ",
            "typeface":"body1",
            "text_color":"default",
            "max_lines":2
          }
        }
      },
      "right":{
        "type":"detail_right_view",
        "detail":{
          "text":"+ 1 г",
          "typeface":"body1",
          "text_color":"brand"
        },
        "margins":{
          "left":"6x"
        }
      }
    },
    {
      "type":"text_cell_view",
      "content":{
        "text":"Открытие ОМС",
        "typeface":"footnote1",
        "text_color":"secondary",
        "max_lines":1,
        "margins":{
          "top":"1x"
        }
      }
    },
    {
      "type":"left_right_cell_view",
      "paddings":{
        "top":"12x"
      },
      "left":{
        "type":"simple_left_view",
        "texts":{
          "title":{
            "text":"MOBILE BANK: KOMISSIYA RUS",
            "typeface":"body1",
            "text_color":"default",
            "max_lines":2
          }
        }
      },
      "right":{
        "type":"detail_right_view",
        "detail":{
          "text":"60 ₽",
          "typeface":"body1",
          "text_color":"default"
        },
        "margins":{
          "left":"6x"
        }
      }
    },
    {
      "type":"text_cell_view",
      "content":{
        "text":"Комиссии",
        "typeface":"footnote1",
        "text_color":"secondary",
        "max_lines":1,
        "margins":{
          "top":"1x"
        }
      }
    },
    {
      "type":"button_cell_view",
      "content":{
        "text":"Посмотреть всю историю",
        "typeface":"button1",
        "style":"default",
        "type":"accept",
        "actions":[
          {
            "type":"deep_link",
            "deep_link":"sberbankonline://history?internal_source=audiohelper507"
          }
        ],
        "margins":{
          "top":"4x",
          "bottom":"4x"
        }
      },
      "paddings":{
        "top":"10x"
      }
    }
  ]
}